%YAML 1.1
%TAG !u! tag:unity3d.com,2011:
--- !u!114 &11400000
MonoBehaviour:
  m_ObjectHideFlags: 0
  m_PrefabParentObject: {fileID: 0}
  m_PrefabInternal: {fileID: 0}
  m_GameObject: {fileID: 0}
  m_Enabled: 1
  m_EditorHideFlags: 0
  m_Script: {fileID: 11500000, guid: a699067bda079234c89a5b454082e1b4, type: 3}
  m_Name: MaidReply
  m_EditorClassIdentifier: 
  textHeader: Jennifer
  sentences:
  - It seems she can only sense me when I move in front of her.
  - I better be patient.
  dialogueIcon: {fileID: 21300000, guid: f16dfbd042eb08d49b2f7cfa8fa188ed, type: 3}
