%YAML 1.1
%TAG !u! tag:unity3d.com,2011:
--- !u!114 &11400000
MonoBehaviour:
  m_ObjectHideFlags: 0
  m_PrefabParentObject: {fileID: 0}
  m_PrefabInternal: {fileID: 0}
  m_GameObject: {fileID: 0}
  m_Enabled: 1
  m_EditorHideFlags: 0
  m_Script: {fileID: 11500000, guid: a699067bda079234c89a5b454082e1b4, type: 3}
  m_Name: ReplyButler
  m_EditorClassIdentifier: 
  textHeader: Jennifer
  sentences:
  - '...'
  - What... who.. wa...?
  - Why is there someone in this house?
  - And tha.. that person doesnt seem to be human...
  - Are the rumours actually true??
  - I have to investigate this!
  dialogueIcon: {fileID: 21300000, guid: f16dfbd042eb08d49b2f7cfa8fa188ed, type: 3}
