%YAML 1.1
%TAG !u! tag:unity3d.com,2011:
--- !u!114 &11400000
MonoBehaviour:
  m_ObjectHideFlags: 0
  m_PrefabParentObject: {fileID: 0}
  m_PrefabInternal: {fileID: 0}
  m_GameObject: {fileID: 0}
  m_Enabled: 1
  m_EditorHideFlags: 0
  m_Script: {fileID: 11500000, guid: a699067bda079234c89a5b454082e1b4, type: 3}
  m_Name: Default
  m_EditorClassIdentifier: 
  textHeader: Jennifer
  sentences:
  - There's nothing here...
  dialogueIcon: {fileID: 21300002, guid: 0842c29337bb0844197a28199cb7b780, type: 3}
