%YAML 1.1
%TAG !u! tag:unity3d.com,2011:
--- !u!114 &11400000
MonoBehaviour:
  m_ObjectHideFlags: 0
  m_PrefabParentObject: {fileID: 0}
  m_PrefabInternal: {fileID: 0}
  m_GameObject: {fileID: 0}
  m_Enabled: 1
  m_EditorHideFlags: 0
  m_Script: {fileID: 11500000, guid: a699067bda079234c89a5b454082e1b4, type: 3}
  m_Name: journal
  m_EditorClassIdentifier: 
  textHeader: Journal
  sentences:
  - This journal...
  - It seems that when this maid was alive it recorded the events that happened in
    this house
  - This is a good clue!
  dialogueIcon: {fileID: 21300000, guid: 9cfd68dded3c5bd45a43fb10b3834564, type: 3}
