%YAML 1.1
%TAG !u! tag:unity3d.com,2011:
--- !u!114 &11400000
MonoBehaviour:
  m_ObjectHideFlags: 0
  m_PrefabParentObject: {fileID: 0}
  m_PrefabInternal: {fileID: 0}
  m_GameObject: {fileID: 0}
  m_Enabled: 1
  m_EditorHideFlags: 0
  m_Script: {fileID: 11500000, guid: 003a0e8f0b27c0a4f9b1071ebbdcfcbb, type: 3}
  m_Name: MusicSheet3
  m_EditorClassIdentifier: 
  name: Music Sheet 3
  icon: {fileID: 21300000, guid: d7b055b8d9125154f88a9fbd3be5a6eb, type: 3}
  addToInventory: 1
  infomation: The third part of a sheet of music. I wonder where the others are.
  type: 9
